Fuel economy data | ggplot2: Elegant Graphics for Data Analysis (3e) Book Club
…
tapply(mpg$manufacturer, INDEX = mpg$manufacturer, FUN = length) |> 
  # which.max()
  sort() |> 
  tail(1)

## dodge 
##    37

Which model has the most variations?

mpg %>% count(model) %>% arrange(desc(n))

## # A tibble: 38 × 2
##    model                   n
##    <chr>               <int>
##  1 caravan 2wd            11
##  2 ram 1500 pickup 4wd    10
##  3 civic                   9
##  4 dakota pickup 4wd       9
##  5 jetta                   9
##  6 mustang                 9
##  7 a4 quattro              8
##  8 grand cherokee 4wd      8
##  9 impreza awd             8
## 10 a4                      7
## # ℹ 28 more rows

Does your answer change if you remove the redundant specification of drive train (e.g. “pathfinder 4wd”, “a4 quattro”) from the model name?

mpg %>%
  mutate(model = sub(" 4wd", "", model),
         model = sub(" awd", "", model),
         model = sub(" 2wd", "", model),
         model = sub(" quattro", "", model)
         ) %>% count(model) %>% arrange(desc(n))

## # A tibble: 37 × 2
##    model               n
##    <chr>           <int>
##  1 a4                 15
##  2 caravan            11
##  3 ram 1500 pickup    10
##  4 civic               9
##  5 dakota pickup       9
##  6 jetta               9
##  7 mustang             9
##  8 grand cherokee      8
##  9 impreza             8
## 10 camry               7
## # ℹ 27 more rows
